Project 1: Exploratory Data Analysis
…
## # A tibble: 6 x 11
##      ID Name  Alignment Gender EyeColor Race  HairColor Publisher SkinColor
##   <dbl> <chr> <chr>     <chr>  <chr>    <chr> <chr>     <chr>     <chr>    
## 1     0 A-Bo… good      Male   yellow   Human No Hair   Marvel C… -        
## 2     0 A-Bo… good      Male   yellow   Human No Hair   Marvel C… -        
## 3     1 Abe … good      Male   blue     Icth… No Hair   Dark Hor… blue     
## 4     1 Abe … good      Male   blue     Icth… No Hair   Dark Hor… blue     
## 5     2 Abin… good      Male   blue     Unga… No Hair   DC Comics red      
## 6     2 Abin… good      Male   blue     Unga… No Hair   DC Comics red      
## # … with 2 more variables: name <chr>, value <dbl>

chrtidy %>% pivot_wider(names_from = "name", values_from = "value")

## # A tibble: 734 x 11
##       ID Name  Alignment Gender EyeColor Race  HairColor Publisher SkinColor
##    <dbl> <chr> <chr>     <chr>  <chr>    <chr> <chr>     <chr>     <chr>    
##  1     0 A-Bo… good      Male   yellow   Human No Hair   Marvel C… -        
##  2     1 Abe … good      Male   blue     Icth… No Hair   Dark Hor… blue     
##  3     2 Abin… good      Male   blue     Unga… No Hair   DC Comics red      
##  4     3 Abom… bad       Male   green    Huma… No Hair   Marvel C… -        
##  5     4 Abra… bad       Male   blue     Cosm… Black     Marvel C… -        
##  6     5 Abso… bad       Male   blue     Human No Hair   Marvel C… -        
##  7     6 Adam… good      Male   blue     -     Blond     NBC - He… -        
##  8     7 Adam… good      Male   blue     Human Blond     DC Comics -        
##  9     8 Agen… good      Female blue     -     Blond     Marvel C… -        
## 10     9 Agen… good      Male   brown    Human Brown     Marvel C… -        
## # … with 724 more rows, and 2 more variables: Height <dbl>, Weight <dbl>
…
Joining

chr_bio <- chr_bio %>% filter(Publisher %in% c("Marvel Comics", 
    "DC Comics"))
full_chrdata <- inner_join(chr_bio, chr_stats, by = "Name")
full_chrdata <- full_chrdata %>% select(-Alignment.y)
full_chrdata <- full_chrdata %>% rename(Alignment = Alignment.x)
full_chrdata <- full_chrdata %>% distinct(Name, .keep_all = T)
full_chrdata$Alignment[full_chrdata$Alignment == "-"] <- "neutral"
full_chrdata$Gender[full_chrdata$Gender == "-"] <- "Non-gendered"
full_chrdata$Race[full_chrdata$Race == "-"] <- "Unkown"
full_chrdata

## # A tibble: 503 x 18
##       ID Name  Alignment Gender EyeColor Race  HairColor Publisher SkinColor
##    <dbl> <chr> <chr>     <chr>  <chr>    <chr> <chr>     <chr>     <chr>    
##  1     0 A-Bo… good      Male   yellow   Human No Hair   Marvel C… -        
##  2     2 Abin… good      Male   blue     Unga… No Hair   DC Comics red      
##  3     3 Abom… bad       Male   green    Huma… No Hair   Marvel C… -        
##  4     4 Abra… bad       Male   blue     Cosm… Black     Marvel C… -        
##  5     7 Adam… good      Male   blue     Human Blond     DC Comics -        
##  6     9 Agen… good      Male   brown    Human Brown     Marvel C… -        
##  7    10 Agen… good      Male   -        Unko… -         Marvel C… -        
##  8    11 Air-… bad       Male   blue     Unko… White     Marvel C… -        
##  9    13 Alan… good      Male   blue     Unko… Blond     DC Comics -        
## 10    16 Alfr… good      Male   blue     Human Black     DC Comics -        
## # … with 493 more rows, and 9 more variables: Height <dbl>, Weight <dbl>,
## #   Intelligence <dbl>, Strength <dbl>, Speed <dbl>, Durability <dbl>,
## #   Power <dbl>, Combat <dbl>, Total <dbl>
…
